Homework 4
…
Parse this and store the “articles” column as a tibble

parsed <- fromJSON(rawToChar(teslaInfo$content))
info2 <- as_tibble(parsed$articles)
info2

# A tibble: 100 × 8
   source$id $name author title description url   urlToImage publishedAt content
   <chr>     <chr> <chr>  <chr> <chr>       <chr> <chr>      <chr>       <chr>  
 1 the-verge The … Thoma… Tesl… "The two N… http… https://c… 2024-06-25… "Tesla…
 2 <NA>      Thef… <NA>   Tesl… "See the r… http… https://t… 2024-06-25… "Earni…
 3 <NA>      Yaho… <NA>   道指… "雖然剛有…  http… <NA>       2024-06-25… "If yo…
 4 <NA>      Clea… Steve… Cali… "The Calif… http… https://c… 2024-06-25… "Sign …
 5 associat… Asso… ap ne… For … "Tesla is … http… https://d… 2024-06-25… "DETRO…
 6 the-verge The … Andre… Uber… "Uber Frei… http… https://c… 2024-06-25… "Uber …
 7 <NA>      Febe… Bobby… Tesl… "Från förs… http… https://s… 2024-06-25… "+\r\n…
 8 <NA>      Secu… Pierl… Wiki… "WikiLeaks… http… https://s… 2024-06-25… "Wikil…
 9 <NA>      Inve… Inves… Tesl… "Tesla rec… http… https://i… 2024-06-25… "Tesla…
10 <NA>      Inve… Inves… Tesl… "Tesla: Ba… http… https://i… 2024-06-25… "Barcl…
# ℹ 90 more rows
…
